// Jest Snapshot v1, https://goo.gl/fbAQLP

exports[`Storyshots App homepage 1`] = `
<div
  style={
    Object {
      "background": "white",
    }
  }
>
  <div
    className="menuOpen"
    id="container"
  >
    <section
      id="menu"
    >
      <div
        className="list-todos"
      >
        <a
          className="active list-todo"
          href="/"
          onClick={[Function]}
          style={Object {}}
        >
          Taskbox
        </a>
        <a
          className="list-todo"
          href="/snoozed"
          onClick={[Function]}
          style={undefined}
        >
          Snoozed
        </a>
        <a
          className="list-todo"
          href="/archived"
          onClick={[Function]}
          style={undefined}
        >
          Archive
        </a>
      </div>
    </section>
    <div
      id="content-container"
    >
      <div
        className="page lists-show"
      >
        <nav>
          <h1
            className="js-edit-list title-page"
          >
            <span
              className="title-wrapper"
            >
              Taskbox
            </span>
          </h1>
        </nav>
        <div
          className="content-scrollable list-items"
        >
          <div
            className="wrapper-message"
          >
            <div
              className="title-message"
            >
              <span>
                <span
                  className="icon-sync"
                />
                Getting your tasks
              </span>
            </div>
            <div
              className="subtitle-message"
            >
              Retrieving the tasks assigned to you from your services
            </div>
          </div>
        </div>
      </div>
    </div>
  </div>
</div>
`;

exports[`Storyshots App snoozed 1`] = `
<div
  style={
    Object {
      "background": "white",
    }
  }
>
  <div
    className="menuOpen"
    id="container"
  >
    <section
      id="menu"
    >
      <div
        className="list-todos"
      >
        <a
          className="list-todo"
          href="/"
          onClick={[Function]}
          style={undefined}
        >
          Taskbox
        </a>
        <a
          className="active list-todo"
          href="/snoozed"
          onClick={[Function]}
          style={Object {}}
        >
          Snoozed
        </a>
        <a
          className="list-todo"
          href="/archived"
          onClick={[Function]}
          style={undefined}
        >
          Archive
        </a>
      </div>
    </section>
    <div
      id="content-container"
    >
      <div
        className="page lists-show"
      >
        <nav>
          <h1
            className="js-edit-list title-page"
          >
            <span
              className="title-wrapper"
            >
              Taskbox
            </span>
          </h1>
        </nav>
        <div
          className="content-scrollable list-items"
        >
          <div
            className="wrapper-message"
          >
            <div
              className="title-message"
            >
              <span>
                <span
                  className="icon-sync"
                />
                Getting your tasks
              </span>
            </div>
            <div
              className="subtitle-message"
            >
              Retrieving the tasks assigned to you from your services
            </div>
          </div>
        </div>
      </div>
      <div
        className="page lists-show snoozed"
      >
        <nav>
          <h1
            className="js-edit-list title-page"
          >
            <span
              className="title-wrapper"
            >
              Snoozed
            </span>
          </h1>
        </nav>
        <div
          className="content-scrollable list-items"
        >
          <div
            className="wrapper-message"
          >
            <div
              className="title-message"
            >
              <span
                className="icon-sync"
              />
              Retrieving your tasks
            </div>
            <div
              className="subtitle-message"
            >
              Hang on just a moment
            </div>
          </div>
        </div>
      </div>
    </div>
  </div>
</div>
`;

exports[`Storyshots Archived error 1`] = `
<div
  id="content-container"
>
  <div
    className="page lists-show snoozed"
  >
    <nav>
      <h1
        className="js-edit-list title-page"
      >
        <span
          className="title-wrapper"
        >
          Archive
        </span>
      </h1>
    </nav>
    <div
      className="content-scrollable list-items"
    >
      <div
        className="wrapper-message"
      >
        <div
          className="title-message"
        >
          Error
        </div>
        <div
          className="subtitle-message"
        >
          Error: Foobar
        </div>
      </div>
    </div>
  </div>
</div>
`;

exports[`Storyshots Archived full 1`] = `
<div
  id="content-container"
>
  <div
    className="page lists-show archive"
  >
    <nav>
      <h1
        className="js-edit-list title-page"
      >
        <span
          className="title-wrapper"
        >
          Archive
        </span>
      </h1>
    </nav>
    <div
      className="content-scrollable list-items"
    >
      <div
        className="list-items"
      >
        <div
          className="list-item TASK_ARCHIVED "
        >
          <div
            className="avatar-wrapper"
          >
            <div
              className="avatar"
            >
              <img
                alt="github"
                className="image"
                src="img/favicon-github.png"
                title="github"
              />
            </div>
            <label
              className="checkbox"
              onClick={[Function]}
            >
              <input
                defaultChecked={true}
                disabled={true}
                name="checked"
                onChange={[Function]}
                type="checkbox"
              />
              <span
                className="checkbox-custom"
                title=""
              />
            </label>
          </div>
          <div
            className="title"
          >
            <a
              className="text"
              href="http://test.url"
              target="_blank"
            >
              Test Task
            </a>
          </div>
          <div
            className="subtitle"
          >
            <a
              href="http://test2.url"
              target="_new"
            >
              on Test Board
            </a>
          </div>
          <div
            className="actions"
            onClick={[Function]}
          >
            <a
              className="reclaim"
              onClick={[Function]}
            >
              Reclaim
            </a>
          </div>
        </div>
        <div
          className="list-item TASK_ARCHIVED "
        >
          <div
            className="avatar-wrapper"
          >
            <div
              className="avatar"
            >
              <div
                className="initials"
              >
                TB
              </div>
            </div>
            <label
              className="checkbox"
              onClick={[Function]}
            >
              <input
                defaultChecked={true}
                disabled={true}
                name="checked"
                onChange={[Function]}
                type="checkbox"
              />
              <span
                className="checkbox-custom"
                title=""
              />
            </label>
          </div>
          <div
            className="title"
          >
            <a
              className="text"
              href="http://test.url"
              target="_blank"
            >
              Test Task
            </a>
          </div>
          <div
            className="subtitle"
          >
            <a
              href="http://test2.url"
              target="_new"
            >
              on Test Board
            </a>
          </div>
          <div
            className="actions"
            onClick={[Function]}
          >
            <a
              className="reclaim"
              onClick={[Function]}
            >
              Reclaim
            </a>
          </div>
        </div>
        <div
          className="list-item TASK_ARCHIVED "
        >
          <div
            className="avatar-wrapper"
          >
            <div
              className="avatar"
            >
              <img
                alt="trello"
                className="image"
                src="img/favicon-trello.png"
                title="trello"
              />
            </div>
            <label
              className="checkbox"
              onClick={[Function]}
            >
              <input
                defaultChecked={true}
                disabled={true}
                name="checked"
                onChange={[Function]}
                type="checkbox"
              />
              <span
                className="checkbox-custom"
                title=""
              />
            </label>
          </div>
          <div
            className="title"
          >
            <a
              className="text"
              href="http://test.url"
              target="_blank"
            >
              Test Task
            </a>
          </div>
          <div
            className="subtitle"
          >
            <a
              href="http://test2.url"
              target="_new"
            >
              on Test Board
            </a>
          </div>
          <div
            className="actions"
            onClick={[Function]}
          >
            <a
              className="reclaim"
              onClick={[Function]}
            >
              Reclaim
            </a>
          </div>
        </div>
      </div>
    </div>
  </div>
</div>
`;

exports[`Storyshots Archived loading 1`] = `
<div
  id="content-container"
>
  <div
    className="page lists-show snoozed"
  >
    <nav>
      <h1
        className="js-edit-list title-page"
      >
        <span
          className="title-wrapper"
        >
          Archive
        </span>
      </h1>
    </nav>
    <div
      className="content-scrollable list-items"
    >
      <div
        className="wrapper-message"
      >
        <div
          className="title-message"
        >
          <span
            className="icon-sync"
          />
          Retrieving your tasks
        </div>
        <div
          className="subtitle-message"
        >
          Hang on just a moment
        </div>
      </div>
    </div>
  </div>
</div>
`;

exports[`Storyshots Archived no tasks 1`] = `
<div
  id="content-container"
>
  <div
    className="page lists-show snoozed"
  >
    <nav>
      <h1
        className="js-edit-list title-page"
      >
        <span
          className="title-wrapper"
        >
          Archive
        </span>
      </h1>
    </nav>
    <div
      className="content-scrollable list-items"
    >
      <div
        className="wrapper-message"
      >
        <div
          className="title-message"
        >
          No tasks in archive
        </div>
        <div
          className="subtitle-message"
        >
          Your tasks that have been unassigned or closed will appear here
        </div>
      </div>
    </div>
  </div>
</div>
`;

exports[`Storyshots Inbox error 1`] = `
<div
  id="content-container"
>
  <div
    className="page lists-show"
  >
    <nav>
      <h1
        className="js-edit-list title-page"
      >
        <span
          className="title-wrapper"
        >
          Taskbox
        </span>
      </h1>
    </nav>
    <div
      className="content-scrollable list-items"
    >
      <div
        className="wrapper-message"
      >
        <div
          className="title-message"
        >
          Error
        </div>
        <div
          className="subtitle-message"
        >
          Error: Foobar
        </div>
      </div>
    </div>
  </div>
</div>
`;

exports[`Storyshots Inbox full 1`] = `
<div
  id="content-container"
>
  <div
    className="page lists-show"
  >
    <nav>
      <h1
        className="js-edit-list title-page"
      >
        <span
          className="title-wrapper"
        >
          Taskbox
        </span>
      </h1>
      <form
        className="js-todo-new todo-new input-symbol"
        onSubmit={[Function]}
      >
        <input
          onChange={[Function]}
          placeholder="Add your own task"
          type="text"
          value=""
        />
        <span
          className="icon-add js-todo-add"
          onClick={[Function]}
        />
      </form>
    </nav>
    <div
      className="content-scrollable list-items"
    >
      <h3
        className="list-heading"
      >
        Important
      </h3>
      <div
        className="list-items"
      >
        <div
          className="list-item TASK_PINNED "
        >
          <div
            className="avatar-wrapper"
          >
            <div
              className="avatar"
            >
              <img
                alt="github"
                className="image"
                src="img/favicon-github.png"
                title="github"
              />
            </div>
            <label
              className="checkbox"
              onClick={[Function]}
            >
              <input
                defaultChecked={false}
                disabled={false}
                name="checked"
                onChange={[Function]}
                type="checkbox"
              />
              <span
                className="checkbox-custom"
                title="Mark as done"
              />
            </label>
          </div>
          <div
            className="title"
          >
            <a
              className="text"
              href="http://test.url"
              target="_blank"
            >
              Test Task
            </a>
          </div>
          <div
            className="subtitle"
          >
            <a
              href="http://test2.url"
              target="_new"
            >
              on Test Board
            </a>
          </div>
          <div
            className="actions"
            onClick={[Function]}
          >
            <a
              className="icon-time"
              onBlur={undefined}
              onClick={[Function]}
              onFocus={undefined}
              onMouseDown={[Function]}
              onMouseEnter={undefined}
              onMouseLeave={undefined}
              onTouchStart={[Function]}
            />
            <a
              className="star"
              onBlur={undefined}
              onClick={[Function]}
              onFocus={undefined}
              onMouseDown={undefined}
              onMouseEnter={[Function]}
              onMouseLeave={[Function]}
              onTouchStart={undefined}
              title="Unstar task"
            >
              <span
                className="icon-star"
              />
            </a>
          </div>
        </div>
        <div
          className="list-item TASK_PINNED "
        >
          <div
            className="avatar-wrapper"
          >
            <div
              className="avatar"
            >
              <img
                alt="github"
                className="image"
                src="img/favicon-github.png"
                title="github"
              />
            </div>
            <label
              className="checkbox"
              onClick={[Function]}
            >
              <input
                defaultChecked={false}
                disabled={false}
                name="checked"
                onChange={[Function]}
                type="checkbox"
              />
              <span
                className="checkbox-custom"
                title="Mark as done"
              />
            </label>
          </div>
          <div
            className="title"
          >
            <a
              className="text"
              href="http://test.url"
              target="_blank"
            >
              Test Task
            </a>
          </div>
          <div
            className="subtitle"
          >
            <a
              href="http://test2.url"
              target="_new"
            >
              on Test Board
            </a>
          </div>
          <div
            className="actions"
            onClick={[Function]}
          >
            <a
              className="icon-time"
              onBlur={undefined}
              onClick={[Function]}
              onFocus={undefined}
              onMouseDown={[Function]}
              onMouseEnter={undefined}
              onMouseLeave={undefined}
              onTouchStart={[Function]}
            />
            <a
              className="star"
              onBlur={undefined}
              onClick={[Function]}
              onFocus={undefined}
              onMouseDown={undefined}
              onMouseEnter={[Function]}
              onMouseLeave={[Function]}
              onTouchStart={undefined}
              title="Unstar task"
            >
              <span
                className="icon-star"
              />
            </a>
          </div>
        </div>
        <div
          className="list-item TASK_PINNED "
        >
          <div
            className="avatar-wrapper"
          >
            <div
              className="avatar"
            >
              <img
                alt="github"
                className="image"
                src="img/favicon-github.png"
                title="github"
              />
            </div>
            <label
              className="checkbox"
              onClick={[Function]}
            >
              <input
                defaultChecked={false}
                disabled={false}
                name="checked"
                onChange={[Function]}
                type="checkbox"
              />
              <span
                className="checkbox-custom"
                title="Mark as done"
              />
            </label>
          </div>
          <div
            className="title"
          >
            <a
              className="text"
              href="http://test.url"
              target="_blank"
            >
              Test Task
            </a>
          </div>
          <div
            className="subtitle"
          >
            <a
              href="http://test2.url"
              target="_new"
            >
              on Test Board
            </a>
          </div>
          <div
            className="actions"
            onClick={[Function]}
          >
            <a
              className="icon-time"
              onBlur={undefined}
              onClick={[Function]}
              onFocus={undefined}
              onMouseDown={[Function]}
              onMouseEnter={undefined}
              onMouseLeave={undefined}
              onTouchStart={[Function]}
            />
            <a
              className="star"
              onBlur={undefined}
              onClick={[Function]}
              onFocus={undefined}
              onMouseDown={undefined}
              onMouseEnter={[Function]}
              onMouseLeave={[Function]}
              onTouchStart={undefined}
              title="Unstar task"
            >
              <span
                className="icon-star"
              />
            </a>
          </div>
        </div>
      </div>
      <h3
        className="list-heading"
      >
        Tasks
      </h3>
      <div
        className="list-items"
      >
        <div
          className="list-item TASK_INBOX "
        >
          <div
            className="avatar-wrapper"
          >
            <div
              className="avatar"
            >
              <img
                alt="github"
                className="image"
                src="img/favicon-github.png"
                title="github"
              />
            </div>
            <label
              className="checkbox"
              onClick={[Function]}
            >
              <input
                defaultChecked={false}
                disabled={false}
                name="checked"
                onChange={[Function]}
                type="checkbox"
              />
              <span
                className="checkbox-custom"
                title="Mark as done"
              />
            </label>
          </div>
          <div
            className="title"
          >
            <a
              className="text"
              href="http://test.url"
              target="_blank"
            >
              Test Task
            </a>
          </div>
          <div
            className="subtitle"
          >
            <a
              href="http://test2.url"
              target="_new"
            >
              on Test Board
            </a>
          </div>
          <div
            className="actions"
            onClick={[Function]}
          >
            <a
              className="icon-time"
              onBlur={undefined}
              onClick={[Function]}
              onFocus={undefined}
              onMouseDown={[Function]}
              onMouseEnter={undefined}
              onMouseLeave={undefined}
              onTouchStart={[Function]}
            />
            <a
              className="star"
              onBlur={undefined}
              onClick={[Function]}
              onFocus={undefined}
              onMouseDown={undefined}
              onMouseEnter={[Function]}
              onMouseLeave={[Function]}
              onTouchStart={undefined}
              title="Star task"
            >
              <span
                className="icon-star-hollow"
              />
            </a>
          </div>
        </div>
        <div
          className="list-item TASK_INBOX "
        >
          <div
            className="avatar-wrapper"
          >
            <div
              className="avatar"
            >
              <img
                alt="github"
                className="image"
                src="img/favicon-github.png"
                title="github"
              />
            </div>
            <label
              className="checkbox"
              onClick={[Function]}
            >
              <input
                defaultChecked={false}
                disabled={false}
                name="checked"
                onChange={[Function]}
                type="checkbox"
              />
              <span
                className="checkbox-custom"
                title="Mark as done"
              />
            </label>
          </div>
          <div
            className="title"
          >
            <a
              className="text"
              href="http://test.url"
              target="_blank"
            >
              Test Task
            </a>
          </div>
          <div
            className="subtitle"
          >
            <a
              href="http://test2.url"
              target="_new"
            >
              on Test Board
            </a>
          </div>
          <div
            className="actions"
            onClick={[Function]}
          >
            <a
              className="icon-time"
              onBlur={undefined}
              onClick={[Function]}
              onFocus={undefined}
              onMouseDown={[Function]}
              onMouseEnter={undefined}
              onMouseLeave={undefined}
              onTouchStart={[Function]}
            />
            <a
              className="star"
              onBlur={undefined}
              onClick={[Function]}
              onFocus={undefined}
              onMouseDown={undefined}
              onMouseEnter={[Function]}
              onMouseLeave={[Function]}
              onTouchStart={undefined}
              title="Star task"
            >
              <span
                className="icon-star-hollow"
              />
            </a>
          </div>
        </div>
        <div
          className="list-item TASK_INBOX "
        >
          <div
            className="avatar-wrapper"
          >
            <div
              className="avatar"
            >
              <img
                alt="github"
                className="image"
                src="img/favicon-github.png"
                title="github"
              />
            </div>
            <label
              className="checkbox"
              onClick={[Function]}
            >
              <input
                defaultChecked={false}
                disabled={false}
                name="checked"
                onChange={[Function]}
                type="checkbox"
              />
              <span
                className="checkbox-custom"
                title="Mark as done"
              />
            </label>
          </div>
          <div
            className="title"
          >
            <a
              className="text"
              href="http://test.url"
              target="_blank"
            >
              Test Task
            </a>
          </div>
          <div
            className="subtitle"
          >
            <a
              href="http://test2.url"
              target="_new"
            >
              on Test Board
            </a>
          </div>
          <div
            className="actions"
            onClick={[Function]}
          >
            <a
              className="icon-time"
              onBlur={undefined}
              onClick={[Function]}
              onFocus={undefined}
              onMouseDown={[Function]}
              onMouseEnter={undefined}
              onMouseLeave={undefined}
              onTouchStart={[Function]}
            />
            <a
              className="star"
              onBlur={undefined}
              onClick={[Function]}
              onFocus={undefined}
              onMouseDown={undefined}
              onMouseEnter={[Function]}
              onMouseLeave={[Function]}
              onTouchStart={undefined}
              title="Star task"
            >
              <span
                className="icon-star-hollow"
              />
            </a>
          </div>
        </div>
      </div>
    </div>
  </div>
</div>
`;

exports[`Storyshots Inbox loading 1`] = `
<div
  id="content-container"
>
  <div
    className="page lists-show"
  >
    <nav>
      <h1
        className="js-edit-list title-page"
      >
        <span
          className="title-wrapper"
        >
          Taskbox
        </span>
      </h1>
    </nav>
    <div
      className="content-scrollable list-items"
    >
      <div
        className="wrapper-message"
      >
        <div
          className="title-message"
        >
          <span>
            <span
              className="icon-sync"
            />
            Getting your tasks
          </span>
        </div>
        <div
          className="subtitle-message"
        >
          Retrieving the tasks assigned to you from your services
        </div>
      </div>
    </div>
  </div>
</div>
`;

exports[`Storyshots Inbox no inbox tasks 1`] = `
<div
  id="content-container"
>
  <div
    className="page lists-show"
  >
    <nav>
      <h1
        className="js-edit-list title-page"
      >
        <span
          className="title-wrapper"
        >
          Taskbox
        </span>
      </h1>
      <form
        className="js-todo-new todo-new input-symbol"
        onSubmit={[Function]}
      >
        <input
          onChange={[Function]}
          placeholder="Add your own task"
          type="text"
          value=""
        />
        <span
          className="icon-add js-todo-add"
          onClick={[Function]}
        />
      </form>
    </nav>
    <div
      className="content-scrollable list-items"
    >
      <h3
        className="list-heading"
      >
        Important
      </h3>
      <div
        className="list-items"
      >
        <div
          className="list-item TASK_PINNED "
        >
          <div
            className="avatar-wrapper"
          >
            <div
              className="avatar"
            >
              <img
                alt="github"
                className="image"
                src="img/favicon-github.png"
                title="github"
              />
            </div>
            <label
              className="checkbox"
              onClick={[Function]}
            >
              <input
                defaultChecked={false}
                disabled={false}
                name="checked"
                onChange={[Function]}
                type="checkbox"
              />
              <span
                className="checkbox-custom"
                title="Mark as done"
              />
            </label>
          </div>
          <div
            className="title"
          >
            <a
              className="text"
              href="http://test.url"
              target="_blank"
            >
              Test Task
            </a>
          </div>
          <div
            className="subtitle"
          >
            <a
              href="http://test2.url"
              target="_new"
            >
              on Test Board
            </a>
          </div>
          <div
            className="actions"
            onClick={[Function]}
          >
            <a
              className="icon-time"
              onBlur={undefined}
              onClick={[Function]}
              onFocus={undefined}
              onMouseDown={[Function]}
              onMouseEnter={undefined}
              onMouseLeave={undefined}
              onTouchStart={[Function]}
            />
            <a
              className="star"
              onBlur={undefined}
              onClick={[Function]}
              onFocus={undefined}
              onMouseDown={undefined}
              onMouseEnter={[Function]}
              onMouseLeave={[Function]}
              onTouchStart={undefined}
              title="Unstar task"
            >
              <span
                className="icon-star"
              />
            </a>
          </div>
        </div>
        <div
          className="list-item TASK_PINNED "
        >
          <div
            className="avatar-wrapper"
          >
            <div
              className="avatar"
            >
              <img
                alt="github"
                className="image"
                src="img/favicon-github.png"
                title="github"
              />
            </div>
            <label
              className="checkbox"
              onClick={[Function]}
            >
              <input
                defaultChecked={false}
                disabled={false}
                name="checked"
                onChange={[Function]}
                type="checkbox"
              />
              <span
                className="checkbox-custom"
                title="Mark as done"
              />
            </label>
          </div>
          <div
            className="title"
          >
            <a
              className="text"
              href="http://test.url"
              target="_blank"
            >
              Test Task
            </a>
          </div>
          <div
            className="subtitle"
          >
            <a
              href="http://test2.url"
              target="_new"
            >
              on Test Board
            </a>
          </div>
          <div
            className="actions"
            onClick={[Function]}
          >
            <a
              className="icon-time"
              onBlur={undefined}
              onClick={[Function]}
              onFocus={undefined}
              onMouseDown={[Function]}
              onMouseEnter={undefined}
              onMouseLeave={undefined}
              onTouchStart={[Function]}
            />
            <a
              className="star"
              onBlur={undefined}
              onClick={[Function]}
              onFocus={undefined}
              onMouseDown={undefined}
              onMouseEnter={[Function]}
              onMouseLeave={[Function]}
              onTouchStart={undefined}
              title="Unstar task"
            >
              <span
                className="icon-star"
              />
            </a>
          </div>
        </div>
        <div
          className="list-item TASK_PINNED "
        >
          <div
            className="avatar-wrapper"
          >
            <div
              className="avatar"
            >
              <img
                alt="github"
                className="image"
                src="img/favicon-github.png"
                title="github"
              />
            </div>
            <label
              className="checkbox"
              onClick={[Function]}
            >
              <input
                defaultChecked={false}
                disabled={false}
                name="checked"
                onChange={[Function]}
                type="checkbox"
              />
              <span
                className="checkbox-custom"
                title="Mark as done"
              />
            </label>
          </div>
          <div
            className="title"
          >
            <a
              className="text"
              href="http://test.url"
              target="_blank"
            >
              Test Task
            </a>
          </div>
          <div
            className="subtitle"
          >
            <a
              href="http://test2.url"
              target="_new"
            >
              on Test Board
            </a>
          </div>
          <div
            className="actions"
            onClick={[Function]}
          >
            <a
              className="icon-time"
              onBlur={undefined}
              onClick={[Function]}
              onFocus={undefined}
              onMouseDown={[Function]}
              onMouseEnter={undefined}
              onMouseLeave={undefined}
              onTouchStart={[Function]}
            />
            <a
              className="star"
              onBlur={undefined}
              onClick={[Function]}
              onFocus={undefined}
              onMouseDown={undefined}
              onMouseEnter={[Function]}
              onMouseLeave={[Function]}
              onTouchStart={undefined}
              title="Unstar task"
            >
              <span
                className="icon-star"
              />
            </a>
          </div>
        </div>
      </div>
    </div>
  </div>
</div>
`;

exports[`Storyshots Inbox no pinned tasks 1`] = `
<div
  id="content-container"
>
  <div
    className="page lists-show"
  >
    <nav>
      <h1
        className="js-edit-list title-page"
      >
        <span
          className="title-wrapper"
        >
          Taskbox
        </span>
      </h1>
      <form
        className="js-todo-new todo-new input-symbol"
        onSubmit={[Function]}
      >
        <input
          onChange={[Function]}
          placeholder="Add your own task"
          type="text"
          value=""
        />
        <span
          className="icon-add js-todo-add"
          onClick={[Function]}
        />
      </form>
    </nav>
    <div
      className="content-scrollable list-items"
    >
      <h3
        className="list-heading"
      >
        Tasks
      </h3>
      <div
        className="list-items"
      >
        <div
          className="list-item TASK_INBOX "
        >
          <div
            className="avatar-wrapper"
          >
            <div
              className="avatar"
            >
              <img
                alt="github"
                className="image"
                src="img/favicon-github.png"
                title="github"
              />
            </div>
            <label
              className="checkbox"
              onClick={[Function]}
            >
              <input
                defaultChecked={false}
                disabled={false}
                name="checked"
                onChange={[Function]}
                type="checkbox"
              />
              <span
                className="checkbox-custom"
                title="Mark as done"
              />
            </label>
          </div>
          <div
            className="title"
          >
            <a
              className="text"
              href="http://test.url"
              target="_blank"
            >
              Test Task
            </a>
          </div>
          <div
            className="subtitle"
          >
            <a
              href="http://test2.url"
              target="_new"
            >
              on Test Board
            </a>
          </div>
          <div
            className="actions"
            onClick={[Function]}
          >
            <a
              className="icon-time"
              onBlur={undefined}
              onClick={[Function]}
              onFocus={undefined}
              onMouseDown={[Function]}
              onMouseEnter={undefined}
              onMouseLeave={undefined}
              onTouchStart={[Function]}
            />
            <a
              className="star"
              onBlur={undefined}
              onClick={[Function]}
              onFocus={undefined}
              onMouseDown={undefined}
              onMouseEnter={[Function]}
              onMouseLeave={[Function]}
              onTouchStart={undefined}
              title="Star task"
            >
              <span
                className="icon-star-hollow"
              />
            </a>
          </div>
        </div>
        <div
          className="list-item TASK_INBOX "
        >
          <div
            className="avatar-wrapper"
          >
            <div
              className="avatar"
            >
              <img
                alt="github"
                className="image"
                src="img/favicon-github.png"
                title="github"
              />
            </div>
            <label
              className="checkbox"
              onClick={[Function]}
            >
              <input
                defaultChecked={false}
                disabled={false}
                name="checked"
                onChange={[Function]}
                type="checkbox"
              />
              <span
                className="checkbox-custom"
                title="Mark as done"
              />
            </label>
          </div>
          <div
            className="title"
          >
            <a
              className="text"
              href="http://test.url"
              target="_blank"
            >
              Test Task
            </a>
          </div>
          <div
            className="subtitle"
          >
            <a
              href="http://test2.url"
              target="_new"
            >
              on Test Board
            </a>
          </div>
          <div
            className="actions"
            onClick={[Function]}
          >
            <a
              className="icon-time"
              onBlur={undefined}
              onClick={[Function]}
              onFocus={undefined}
              onMouseDown={[Function]}
              onMouseEnter={undefined}
              onMouseLeave={undefined}
              onTouchStart={[Function]}
            />
            <a
              className="star"
              onBlur={undefined}
              onClick={[Function]}
              onFocus={undefined}
              onMouseDown={undefined}
              onMouseEnter={[Function]}
              onMouseLeave={[Function]}
              onTouchStart={undefined}
              title="Star task"
            >
              <span
                className="icon-star-hollow"
              />
            </a>
          </div>
        </div>
        <div
          className="list-item TASK_INBOX "
        >
          <div
            className="avatar-wrapper"
          >
            <div
              className="avatar"
            >
              <img
                alt="github"
                className="image"
                src="img/favicon-github.png"
                title="github"
              />
            </div>
            <label
              className="checkbox"
              onClick={[Function]}
            >
              <input
                defaultChecked={false}
                disabled={false}
                name="checked"
                onChange={[Function]}
                type="checkbox"
              />
              <span
                className="checkbox-custom"
                title="Mark as done"
              />
            </label>
          </div>
          <div
            className="title"
          >
            <a
              className="text"
              href="http://test.url"
              target="_blank"
            >
              Test Task
            </a>
          </div>
          <div
            className="subtitle"
          >
            <a
              href="http://test2.url"
              target="_new"
            >
              on Test Board
            </a>
          </div>
          <div
            className="actions"
            onClick={[Function]}
          >
            <a
              className="icon-time"
              onBlur={undefined}
              onClick={[Function]}
              onFocus={undefined}
              onMouseDown={[Function]}
              onMouseEnter={undefined}
              onMouseLeave={undefined}
              onTouchStart={[Function]}
            />
            <a
              className="star"
              onBlur={undefined}
              onClick={[Function]}
              onFocus={undefined}
              onMouseDown={undefined}
              onMouseEnter={[Function]}
              onMouseLeave={[Function]}
              onTouchStart={undefined}
              title="Star task"
            >
              <span
                className="icon-star-hollow"
              />
            </a>
          </div>
        </div>
      </div>
    </div>
  </div>
</div>
`;

exports[`Storyshots Inbox no tasks 1`] = `
<div
  id="content-container"
>
  <div
    className="page lists-show"
  >
    <nav>
      <h1
        className="js-edit-list title-page"
      >
        <span
          className="title-wrapper"
        >
          Taskbox
        </span>
      </h1>
      <form
        className="js-todo-new todo-new input-symbol"
        onSubmit={[Function]}
      >
        <input
          onChange={[Function]}
          placeholder="Add your own task"
          type="text"
          value=""
        />
        <span
          className="icon-add js-todo-add"
          onClick={[Function]}
        />
      </form>
    </nav>
    <div
      className="content-scrollable list-items"
    >
      <div
        className="wrapper-message"
      >
        <div
          className="title-message"
        >
          No Tasks
        </div>
        <div
          className="subtitle-message"
        >
          You don't have any open tasks assigned to you yet. 
        </div>
      </div>
    </div>
  </div>
</div>
`;

exports[`Storyshots InboxScreen error 1`] = `
<div
  className="page lists-show"
>
  <nav>
    <h1
      className="js-edit-list title-page"
    >
      <span
        className="title-wrapper"
      >
        Taskbox
      </span>
    </h1>
  </nav>
  <div
    className="content-scrollable list-items"
  >
    <div
      className="wrapper-message"
    >
      <div
        className="title-message"
      >
        <span>
          <span
            className="icon-sync"
          />
          Getting your tasks
        </span>
      </div>
      <div
        className="subtitle-message"
      >
        Retrieving the tasks assigned to you from your services
      </div>
    </div>
  </div>
</div>
`;

exports[`Storyshots InboxScreen full data 1`] = `
<div
  className="page lists-show"
>
  <nav>
    <h1
      className="js-edit-list title-page"
    >
      <span
        className="title-wrapper"
      >
        Taskbox
      </span>
    </h1>
  </nav>
  <div
    className="content-scrollable list-items"
  >
    <div
      className="wrapper-message"
    >
      <div
        className="title-message"
      >
        <span>
          <span
            className="icon-sync"
          />
          Getting your tasks
        </span>
      </div>
      <div
        className="subtitle-message"
      >
        Retrieving the tasks assigned to you from your services
      </div>
    </div>
  </div>
</div>
`;

exports[`Storyshots InboxScreen no data 1`] = `
<div
  className="page lists-show"
>
  <nav>
    <h1
      className="js-edit-list title-page"
    >
      <span
        className="title-wrapper"
      >
        Taskbox
      </span>
    </h1>
  </nav>
  <div
    className="content-scrollable list-items"
  >
    <div
      className="wrapper-message"
    >
      <div
        className="title-message"
      >
        <span>
          <span
            className="icon-sync"
          />
          Getting your tasks
        </span>
      </div>
      <div
        className="subtitle-message"
      >
        Retrieving the tasks assigned to you from your services
      </div>
    </div>
  </div>
</div>
`;

exports[`Storyshots InboxScreen only inbox 1`] = `
<div
  className="page lists-show"
>
  <nav>
    <h1
      className="js-edit-list title-page"
    >
      <span
        className="title-wrapper"
      >
        Taskbox
      </span>
    </h1>
  </nav>
  <div
    className="content-scrollable list-items"
  >
    <div
      className="wrapper-message"
    >
      <div
        className="title-message"
      >
        <span>
          <span
            className="icon-sync"
          />
          Getting your tasks
        </span>
      </div>
      <div
        className="subtitle-message"
      >
        Retrieving the tasks assigned to you from your services
      </div>
    </div>
  </div>
</div>
`;

exports[`Storyshots InboxScreen only pinned 1`] = `
<div
  className="page lists-show"
>
  <nav>
    <h1
      className="js-edit-list title-page"
    >
      <span
        className="title-wrapper"
      >
        Taskbox
      </span>
    </h1>
  </nav>
  <div
    className="content-scrollable list-items"
  >
    <div
      className="wrapper-message"
    >
      <div
        className="title-message"
      >
        <span>
          <span
            className="icon-sync"
          />
          Getting your tasks
        </span>
      </div>
      <div
        className="subtitle-message"
      >
        Retrieving the tasks assigned to you from your services
      </div>
    </div>
  </div>
</div>
`;

exports[`Storyshots LoginButton logged in; has all services 1`] = `
<div
  id="menu"
>
  <div
    className="btns-group-vertical"
    onClick={[Function]}
  >
    <a
      className="btn-secondary"
    >
      <span
        className="icon-arrow-down"
      />
      tom
    </a>
  </div>
</div>
`;

exports[`Storyshots LoginButton logged in; missing one service 1`] = `
<div
  id="menu"
>
  <div
    className="btns-group-vertical"
    onClick={[Function]}
  >
    <a
      className="btn-secondary"
    >
      <span
        className="icon-arrow-down"
      />
      tom
    </a>
  </div>
</div>
`;

exports[`Storyshots LoginButton logged in; missing two services 1`] = `
<div
  id="menu"
>
  <div
    className="btns-group-vertical"
    onClick={[Function]}
  >
    <a
      className="btn-secondary"
    >
      <span
        className="icon-arrow-down"
      />
      tom
    </a>
  </div>
</div>
`;

exports[`Storyshots LoginButton logged in; no services 1`] = `
<div
  id="menu"
>
  <div
    className="btns-group-vertical"
    onClick={[Function]}
  >
    <a
      className="btn-secondary"
    >
      <span
        className="icon-arrow-down"
      />
      tom
    </a>
  </div>
</div>
`;

exports[`Storyshots LoginButton logged out 1`] = `
<div
  id="menu"
>
  <div
    className="btns-group"
  >
    <a
      className="btn-secondary"
      onClick={[Function]}
    >
      Login
    </a>
  </div>
</div>
`;

exports[`Storyshots Menu logged in 1`] = `
<section
  id="menu"
>
  <div
    className="btns-group-vertical"
    onClick={[Function]}
  >
    <a
      className="btn-secondary"
    >
      <span
        className="icon-arrow-down"
      />
      tom
    </a>
  </div>
  <div
    className="list-todos"
  >
    <a
      className="active list-todo"
      href="/"
      onClick={[Function]}
      style={Object {}}
    >
      Taskbox
    </a>
    <a
      className="list-todo"
      href="/snoozed"
      onClick={[Function]}
      style={undefined}
    >
      Snoozed
    </a>
    <a
      className="list-todo"
      href="/archived"
      onClick={[Function]}
      style={undefined}
    >
      Archive
    </a>
  </div>
</section>
`;

exports[`Storyshots Menu logged out 1`] = `
<section
  id="menu"
>
  <div
    className="btns-group"
  >
    <a
      className="btn-secondary"
      onClick={[Function]}
    >
      Login
    </a>
  </div>
  <div
    className="list-todos"
  >
    <a
      className="active list-todo"
      href="/"
      onClick={[Function]}
      style={Object {}}
    >
      Taskbox
    </a>
    <a
      className="list-todo"
      href="/snoozed"
      onClick={[Function]}
      style={undefined}
    >
      Snoozed
    </a>
    <a
      className="list-todo"
      href="/archived"
      onClick={[Function]}
      style={undefined}
    >
      Archive
    </a>
  </div>
</section>
`;

exports[`Storyshots SnoozeButtons linked snoozed task 1`] = `
<div
  className="rc-tooltip-inner"
>
  <div
    className="snooze-wrapper"
  >
    <div
      className="tooltip-heading"
    >
      Snooze until
    </div>
    <div
      className="list small"
    >
      <a
        onClick={[Function]}
      >
        Tomorrow
      </a>
      <a
        onClick={[Function]}
      >
        Friday
         (3 days)
      </a>
      <a
        onClick={[Function]}
      >
        Further activity
      </a>
      <a
        onClick={[Function]}
      >
        Unsnooze
      </a>
    </div>
  </div>
</div>
`;

exports[`Storyshots SnoozeButtons linked unsnoozed task 1`] = `
<div
  className="rc-tooltip-inner"
>
  <div
    className="snooze-wrapper"
  >
    <div
      className="tooltip-heading"
    >
      Snooze until
    </div>
    <div
      className="list small"
    >
      <a
        onClick={[Function]}
      >
        Tomorrow
      </a>
      <a
        onClick={[Function]}
      >
        Friday
         (3 days)
      </a>
      <a
        onClick={[Function]}
      >
        Further activity
      </a>
    </div>
  </div>
</div>
`;

exports[`Storyshots SnoozeButtons unlinked snoozed task 1`] = `
<div
  className="rc-tooltip-inner"
>
  <div
    className="snooze-wrapper"
  >
    <div
      className="tooltip-heading"
    >
      Snooze until
    </div>
    <div
      className="list small"
    >
      <a
        onClick={[Function]}
      >
        Tomorrow
      </a>
      <a
        onClick={[Function]}
      >
        Friday
         (3 days)
      </a>
      <a
        onClick={[Function]}
      >
        Unsnooze
      </a>
    </div>
  </div>
</div>
`;

exports[`Storyshots SnoozeButtons unlinked unsnoozed task 1`] = `
<div
  className="rc-tooltip-inner"
>
  <div
    className="snooze-wrapper"
  >
    <div
      className="tooltip-heading"
    >
      Snooze until
    </div>
    <div
      className="list small"
    >
      <a
        onClick={[Function]}
      >
        Tomorrow
      </a>
      <a
        onClick={[Function]}
      >
        Friday
         (3 days)
      </a>
    </div>
  </div>
</div>
`;

exports[`Storyshots Snoozed error 1`] = `
<div
  id="content-container"
>
  <div
    className="page lists-show snoozed"
  >
    <nav>
      <h1
        className="js-edit-list title-page"
      >
        <span
          className="title-wrapper"
        >
          Snoozed
        </span>
      </h1>
    </nav>
    <div
      className="content-scrollable list-items"
    >
      <div
        className="wrapper-message"
      >
        <div
          className="title-message"
        >
          Error
        </div>
        <div
          className="subtitle-message"
        >
          Error: Foobar
        </div>
      </div>
    </div>
  </div>
</div>
`;

exports[`Storyshots Snoozed full 1`] = `
<div
  id="content-container"
>
  <div
    className="page lists-show snoozed"
  >
    <nav>
      <h1
        className="js-edit-list title-page"
      >
        <span
          className="title-wrapper"
        >
          Snoozed
        </span>
      </h1>
    </nav>
    <div
      className="content-scrollable list-items"
    >
      <div
        className="list-items"
      >
        <div
          className="list-item TASK_SNOOZED "
        >
          <div
            className="avatar-wrapper"
          >
            <div
              className="avatar"
            >
              <img
                alt="github"
                className="image"
                src="img/favicon-github.png"
                title="github"
              />
            </div>
            <label
              className="checkbox"
              onClick={[Function]}
            >
              <input
                defaultChecked={false}
                disabled={false}
                name="checked"
                onChange={[Function]}
                type="checkbox"
              />
              <span
                className="checkbox-custom"
                title="Mark as done"
              />
            </label>
          </div>
          <div
            className="title"
          >
            <a
              className="text"
              href="http://test.url"
              target="_blank"
            >
              Test Task
            </a>
          </div>
          <div
            className="subtitle"
          >
            <a
              href="http://test2.url"
              target="_new"
            >
              on Test Board
            </a>
          </div>
          <div
            className="actions"
            onClick={[Function]}
          >
            <span
              className="time"
            >
              <span
                className="time-snooze"
              >
                Unsnoozing 
                in a day
              </span>
              <a
                className="icon-time"
                onBlur={undefined}
                onClick={[Function]}
                onFocus={undefined}
                onMouseDown={[Function]}
                onMouseEnter={undefined}
                onMouseLeave={undefined}
                onTouchStart={[Function]}
              />
            </span>
            <a
              className="star"
              onBlur={undefined}
              onClick={[Function]}
              onFocus={undefined}
              onMouseDown={undefined}
              onMouseEnter={[Function]}
              onMouseLeave={[Function]}
              onTouchStart={undefined}
              title="Star task"
            >
              <span
                className="icon-star-hollow"
              />
            </a>
          </div>
        </div>
        <div
          className="list-item TASK_SNOOZED "
        >
          <div
            className="avatar-wrapper"
          >
            <div
              className="avatar"
            >
              <img
                alt="github"
                className="image"
                src="img/favicon-github.png"
                title="github"
              />
            </div>
            <label
              className="checkbox"
              onClick={[Function]}
            >
              <input
                defaultChecked={false}
                disabled={false}
                name="checked"
                onChange={[Function]}
                type="checkbox"
              />
              <span
                className="checkbox-custom"
                title="Mark as done"
              />
            </label>
          </div>
          <div
            className="title"
          >
            <a
              className="text"
              href="http://test.url"
              target="_blank"
            >
              Test Task
            </a>
          </div>
          <div
            className="subtitle"
          >
            <a
              href="http://test2.url"
              target="_new"
            >
              on Test Board
            </a>
          </div>
          <div
            className="actions"
            onClick={[Function]}
          >
            <span
              className="time"
            >
              <span
                className="time-snooze"
              >
                Unsnoozing 
                in a day
              </span>
              <a
                className="icon-time"
                onBlur={undefined}
                onClick={[Function]}
                onFocus={undefined}
                onMouseDown={[Function]}
                onMouseEnter={undefined}
                onMouseLeave={undefined}
                onTouchStart={[Function]}
              />
            </span>
            <a
              className="star"
              onBlur={undefined}
              onClick={[Function]}
              onFocus={undefined}
              onMouseDown={undefined}
              onMouseEnter={[Function]}
              onMouseLeave={[Function]}
              onTouchStart={undefined}
              title="Star task"
            >
              <span
                className="icon-star-hollow"
              />
            </a>
          </div>
        </div>
        <div
          className="list-item TASK_SNOOZED "
        >
          <div
            className="avatar-wrapper"
          >
            <div
              className="avatar"
            >
              <img
                alt="github"
                className="image"
                src="img/favicon-github.png"
                title="github"
              />
            </div>
            <label
              className="checkbox"
              onClick={[Function]}
            >
              <input
                defaultChecked={false}
                disabled={false}
                name="checked"
                onChange={[Function]}
                type="checkbox"
              />
              <span
                className="checkbox-custom"
                title="Mark as done"
              />
            </label>
          </div>
          <div
            className="title"
          >
            <a
              className="text"
              href="http://test.url"
              target="_blank"
            >
              Test Task
            </a>
          </div>
          <div
            className="subtitle"
          >
            <a
              href="http://test2.url"
              target="_new"
            >
              on Test Board
            </a>
          </div>
          <div
            className="actions"
            onClick={[Function]}
          >
            <span
              className="time"
            >
              <span
                className="time-snooze"
              >
                Unsnoozing 
                in a day
              </span>
              <a
                className="icon-time"
                onBlur={undefined}
                onClick={[Function]}
                onFocus={undefined}
                onMouseDown={[Function]}
                onMouseEnter={undefined}
                onMouseLeave={undefined}
                onTouchStart={[Function]}
              />
            </span>
            <a
              className="star"
              onBlur={undefined}
              onClick={[Function]}
              onFocus={undefined}
              onMouseDown={undefined}
              onMouseEnter={[Function]}
              onMouseLeave={[Function]}
              onTouchStart={undefined}
              title="Star task"
            >
              <span
                className="icon-star-hollow"
              />
            </a>
          </div>
        </div>
      </div>
    </div>
  </div>
</div>
`;

exports[`Storyshots Snoozed loading 1`] = `
<div
  id="content-container"
>
  <div
    className="page lists-show snoozed"
  >
    <nav>
      <h1
        className="js-edit-list title-page"
      >
        <span
          className="title-wrapper"
        >
          Snoozed
        </span>
      </h1>
    </nav>
    <div
      className="content-scrollable list-items"
    >
      <div
        className="wrapper-message"
      >
        <div
          className="title-message"
        >
          <span
            className="icon-sync"
          />
          Retrieving your tasks
        </div>
        <div
          className="subtitle-message"
        >
          Hang on just a moment
        </div>
      </div>
    </div>
  </div>
</div>
`;

exports[`Storyshots Snoozed no tasks 1`] = `
<div
  id="content-container"
>
  <div
    className="page lists-show snoozed"
  >
    <nav>
      <h1
        className="js-edit-list title-page"
      >
        <span
          className="title-wrapper"
        >
          Snoozed
        </span>
      </h1>
    </nav>
    <div
      className="content-scrollable list-items"
    >
      <div
        className="wrapper-message"
      >
        <div
          className="title-message"
        >
          No snoozed tasks
        </div>
        <div
          className="subtitle-message"
        >
          You haven't snoozed any tasks yet
        </div>
      </div>
    </div>
  </div>
</div>
`;

exports[`Storyshots Task archived custom task 1`] = `
<div
  className="list-items"
  style={
    Object {
      "background": "white",
    }
  }
>
  <div
    className="list-item TASK_ARCHIVED "
  >
    <div
      className="avatar-wrapper"
    >
      <div
        className="avatar"
      >
        <div
          className="initials"
        >
          TB
        </div>
      </div>
      <label
        className="checkbox"
        onClick={[Function]}
      >
        <input
          defaultChecked={true}
          disabled={true}
          name="checked"
          onChange={[Function]}
          type="checkbox"
        />
        <span
          className="checkbox-custom"
          title=""
        />
      </label>
    </div>
    <div
      className="title"
    >
      <a
        className="text"
        href={null}
        target="_blank"
      >
        Test Task
      </a>
    </div>
    <div
      className="subtitle"
    >
      <a
        href="http://test2.url"
        target="_new"
      >
        on Test Board
      </a>
    </div>
    <div
      className="actions"
      onClick={[Function]}
    >
      <a
        className="reclaim"
        onClick={[Function]}
      >
        Reclaim
      </a>
    </div>
  </div>
</div>
`;

exports[`Storyshots Task archived task 1`] = `
<div
  className="list-items"
  style={
    Object {
      "background": "white",
    }
  }
>
  <div
    className="list-item TASK_ARCHIVED "
  >
    <div
      className="avatar-wrapper"
    >
      <div
        className="avatar"
      >
        <img
          alt="github"
          className="image"
          src="img/favicon-github.png"
          title="github"
        />
      </div>
      <label
        className="checkbox"
        onClick={[Function]}
      >
        <input
          defaultChecked={true}
          disabled={true}
          name="checked"
          onChange={[Function]}
          type="checkbox"
        />
        <span
          className="checkbox-custom"
          title=""
        />
      </label>
    </div>
    <div
      className="title"
    >
      <a
        className="text"
        href="http://test.url"
        target="_blank"
      >
        Test Task
      </a>
    </div>
    <div
      className="subtitle"
    >
      <a
        href="http://test2.url"
        target="_new"
      >
        on Test Board
      </a>
    </div>
    <div
      className="actions"
      onClick={[Function]}
    >
      <a
        className="reclaim"
        onClick={[Function]}
      >
        Reclaim
      </a>
    </div>
  </div>
</div>
`;

exports[`Storyshots Task inbox task 1`] = `
<div
  className="list-items"
  style={
    Object {
      "background": "white",
    }
  }
>
  <div
    className="list-item TASK_INBOX "
  >
    <div
      className="avatar-wrapper"
    >
      <div
        className="avatar"
      >
        <img
          alt="github"
          className="image"
          src="img/favicon-github.png"
          title="github"
        />
      </div>
      <label
        className="checkbox"
        onClick={[Function]}
      >
        <input
          defaultChecked={false}
          disabled={false}
          name="checked"
          onChange={[Function]}
          type="checkbox"
        />
        <span
          className="checkbox-custom"
          title="Mark as done"
        />
      </label>
    </div>
    <div
      className="title"
    >
      <a
        className="text"
        href="http://test.url"
        target="_blank"
      >
        Test Task
      </a>
    </div>
    <div
      className="subtitle"
    >
      <a
        href="http://test2.url"
        target="_new"
      >
        on Test Board
      </a>
    </div>
    <div
      className="actions"
      onClick={[Function]}
    >
      <a
        className="icon-time"
        onBlur={undefined}
        onClick={[Function]}
        onFocus={undefined}
        onMouseDown={[Function]}
        onMouseEnter={undefined}
        onMouseLeave={undefined}
        onTouchStart={[Function]}
      />
      <a
        className="star"
        onBlur={undefined}
        onClick={[Function]}
        onFocus={undefined}
        onMouseDown={undefined}
        onMouseEnter={[Function]}
        onMouseLeave={[Function]}
        onTouchStart={undefined}
        title="Star task"
      >
        <span
          className="icon-star-hollow"
        />
      </a>
    </div>
  </div>
</div>
`;

exports[`Storyshots Task inbox task custom 1`] = `
<div
  className="list-items"
  style={
    Object {
      "background": "white",
    }
  }
>
  <div
    className="list-item TASK_INBOX "
  >
    <div
      className="avatar-wrapper"
    >
      <div
        className="avatar"
      >
        <div
          className="initials"
        >
          TB
        </div>
      </div>
      <label
        className="checkbox"
        onClick={[Function]}
      >
        <input
          defaultChecked={false}
          disabled={false}
          name="checked"
          onChange={[Function]}
          type="checkbox"
        />
        <span
          className="checkbox-custom"
          title="Mark as done"
        />
      </label>
    </div>
    <div
      className="title"
    >
      <input
        onChange={[Function]}
        placeholder="Input title"
        type="text"
        value="Test Task"
      />
    </div>
    <div
      className="actions"
      onClick={[Function]}
    >
      <a
        className="icon-time"
        onBlur={undefined}
        onClick={[Function]}
        onFocus={undefined}
        onMouseDown={[Function]}
        onMouseEnter={undefined}
        onMouseLeave={undefined}
        onTouchStart={[Function]}
      />
      <a
        className="star"
        onBlur={undefined}
        onClick={[Function]}
        onFocus={undefined}
        onMouseDown={undefined}
        onMouseEnter={[Function]}
        onMouseLeave={[Function]}
        onTouchStart={undefined}
        title="Star task"
      >
        <span
          className="icon-star-hollow"
        />
      </a>
    </div>
  </div>
</div>
`;

exports[`Storyshots Task inbox task long title 1`] = `
<div
  className="list-items"
  style={
    Object {
      "background": "white",
    }
  }
>
  <div
    className="list-item TASK_INBOX "
  >
    <div
      className="avatar-wrapper"
    >
      <div
        className="avatar"
      >
        <img
          alt="github"
          className="image"
          src="img/favicon-github.png"
          title="github"
        />
      </div>
      <label
        className="checkbox"
        onClick={[Function]}
      >
        <input
          defaultChecked={false}
          disabled={false}
          name="checked"
          onChange={[Function]}
          type="checkbox"
        />
        <span
          className="checkbox-custom"
          title="Mark as done"
        />
      </label>
    </div>
    <div
      className="title"
    >
      <a
        className="text"
        href="http://test.url"
        target="_blank"
      >
        This is a very very very very very very long title
      </a>
    </div>
    <div
      className="subtitle"
    >
      <a
        href="http://test2.url"
        target="_new"
      >
        on Test Board
      </a>
    </div>
    <div
      className="actions"
      onClick={[Function]}
    >
      <a
        className="icon-time"
        onBlur={undefined}
        onClick={[Function]}
        onFocus={undefined}
        onMouseDown={[Function]}
        onMouseEnter={undefined}
        onMouseLeave={undefined}
        onTouchStart={[Function]}
      />
      <a
        className="star"
        onBlur={undefined}
        onClick={[Function]}
        onFocus={undefined}
        onMouseDown={undefined}
        onMouseEnter={[Function]}
        onMouseLeave={[Function]}
        onTouchStart={undefined}
        title="Star task"
      >
        <span
          className="icon-star-hollow"
        />
      </a>
    </div>
  </div>
</div>
`;

exports[`Storyshots Task inbox task no subtitle url 1`] = `
<div
  className="list-items"
  style={
    Object {
      "background": "white",
    }
  }
>
  <div
    className="list-item TASK_INBOX "
  >
    <div
      className="avatar-wrapper"
    >
      <div
        className="avatar"
      >
        <img
          alt="github"
          className="image"
          src="img/favicon-github.png"
          title="github"
        />
      </div>
      <label
        className="checkbox"
        onClick={[Function]}
      >
        <input
          defaultChecked={false}
          disabled={false}
          name="checked"
          onChange={[Function]}
          type="checkbox"
        />
        <span
          className="checkbox-custom"
          title="Mark as done"
        />
      </label>
    </div>
    <div
      className="title"
    >
      <a
        className="text"
        href="http://test.url"
        target="_blank"
      >
        Test Task
      </a>
    </div>
    <p
      className="subtitle"
    >
      on Test Board
    </p>
    <div
      className="actions"
      onClick={[Function]}
    >
      <a
        className="icon-time"
        onBlur={undefined}
        onClick={[Function]}
        onFocus={undefined}
        onMouseDown={[Function]}
        onMouseEnter={undefined}
        onMouseLeave={undefined}
        onTouchStart={[Function]}
      />
      <a
        className="star"
        onBlur={undefined}
        onClick={[Function]}
        onFocus={undefined}
        onMouseDown={undefined}
        onMouseEnter={[Function]}
        onMouseLeave={[Function]}
        onTouchStart={undefined}
        title="Star task"
      >
        <span
          className="icon-star-hollow"
        />
      </a>
    </div>
  </div>
</div>
`;

exports[`Storyshots Task inbox task trello 1`] = `
<div
  className="list-items"
  style={
    Object {
      "background": "white",
    }
  }
>
  <div
    className="list-item TASK_INBOX "
  >
    <div
      className="avatar-wrapper"
    >
      <div
        className="avatar"
      >
        <img
          alt="trello"
          className="image"
          src="img/favicon-trello.png"
          title="trello"
        />
      </div>
      <label
        className="checkbox"
        onClick={[Function]}
      >
        <input
          defaultChecked={false}
          disabled={false}
          name="checked"
          onChange={[Function]}
          type="checkbox"
        />
        <span
          className="checkbox-custom"
          title="Mark as done"
        />
      </label>
    </div>
    <div
      className="title"
    >
      <a
        className="text"
        href="http://test.url"
        target="_blank"
      >
        Test Task
      </a>
    </div>
    <div
      className="subtitle"
    >
      <a
        href="http://test2.url"
        target="_new"
      >
        on Test Board
      </a>
    </div>
    <div
      className="actions"
      onClick={[Function]}
    >
      <a
        className="icon-time"
        onBlur={undefined}
        onClick={[Function]}
        onFocus={undefined}
        onMouseDown={[Function]}
        onMouseEnter={undefined}
        onMouseLeave={undefined}
        onTouchStart={[Function]}
      />
      <a
        className="star"
        onBlur={undefined}
        onClick={[Function]}
        onFocus={undefined}
        onMouseDown={undefined}
        onMouseEnter={[Function]}
        onMouseLeave={[Function]}
        onTouchStart={undefined}
        title="Star task"
      >
        <span
          className="icon-star-hollow"
        />
      </a>
    </div>
  </div>
</div>
`;

exports[`Storyshots Task pinned task 1`] = `
<div
  className="list-items"
  style={
    Object {
      "background": "white",
    }
  }
>
  <div
    className="list-item TASK_PINNED "
  >
    <div
      className="avatar-wrapper"
    >
      <div
        className="avatar"
      >
        <img
          alt="github"
          className="image"
          src="img/favicon-github.png"
          title="github"
        />
      </div>
      <label
        className="checkbox"
        onClick={[Function]}
      >
        <input
          defaultChecked={false}
          disabled={false}
          name="checked"
          onChange={[Function]}
          type="checkbox"
        />
        <span
          className="checkbox-custom"
          title="Mark as done"
        />
      </label>
    </div>
    <div
      className="title"
    >
      <a
        className="text"
        href="http://test.url"
        target="_blank"
      >
        Test Task
      </a>
    </div>
    <div
      className="subtitle"
    >
      <a
        href="http://test2.url"
        target="_new"
      >
        on Test Board
      </a>
    </div>
    <div
      className="actions"
      onClick={[Function]}
    >
      <a
        className="icon-time"
        onBlur={undefined}
        onClick={[Function]}
        onFocus={undefined}
        onMouseDown={[Function]}
        onMouseEnter={undefined}
        onMouseLeave={undefined}
        onTouchStart={[Function]}
      />
      <a
        className="star"
        onBlur={undefined}
        onClick={[Function]}
        onFocus={undefined}
        onMouseDown={undefined}
        onMouseEnter={[Function]}
        onMouseLeave={[Function]}
        onTouchStart={undefined}
        title="Unstar task"
      >
        <span
          className="icon-star"
        />
      </a>
    </div>
  </div>
</div>
`;

exports[`Storyshots Task snoozed task 1`] = `
<div
  className="list-items"
  style={
    Object {
      "background": "white",
    }
  }
>
  <div
    className="list-item TASK_SNOOZED "
  >
    <div
      className="avatar-wrapper"
    >
      <div
        className="avatar"
      >
        <img
          alt="github"
          className="image"
          src="img/favicon-github.png"
          title="github"
        />
      </div>
      <label
        className="checkbox"
        onClick={[Function]}
      >
        <input
          defaultChecked={false}
          disabled={false}
          name="checked"
          onChange={[Function]}
          type="checkbox"
        />
        <span
          className="checkbox-custom"
          title="Mark as done"
        />
      </label>
    </div>
    <div
      className="title"
    >
      <a
        className="text"
        href="http://test.url"
        target="_blank"
      >
        Test Task
      </a>
    </div>
    <div
      className="subtitle"
    >
      <a
        href="http://test2.url"
        target="_new"
      >
        on Test Board
      </a>
    </div>
    <div
      className="actions"
      onClick={[Function]}
    >
      <span
        className="time"
      >
        <span
          className="time-snooze"
        >
          Unsnoozing 
          in a day
        </span>
        <a
          className="icon-time"
          onBlur={undefined}
          onClick={[Function]}
          onFocus={undefined}
          onMouseDown={[Function]}
          onMouseEnter={undefined}
          onMouseLeave={undefined}
          onTouchStart={[Function]}
        />
      </span>
      <a
        className="star"
        onBlur={undefined}
        onClick={[Function]}
        onFocus={undefined}
        onMouseDown={undefined}
        onMouseEnter={[Function]}
        onMouseLeave={[Function]}
        onTouchStart={undefined}
        title="Star task"
      >
        <span
          className="icon-star-hollow"
        />
      </a>
    </div>
  </div>
</div>
`;

exports[`Storyshots Task snoozed till further activity 1`] = `
<div
  className="list-items"
  style={
    Object {
      "background": "white",
    }
  }
>
  <div
    className="list-item TASK_SNOOZED "
  >
    <div
      className="avatar-wrapper"
    >
      <div
        className="avatar"
      >
        <img
          alt="github"
          className="image"
          src="img/favicon-github.png"
          title="github"
        />
      </div>
      <label
        className="checkbox"
        onClick={[Function]}
      >
        <input
          defaultChecked={false}
          disabled={false}
          name="checked"
          onChange={[Function]}
          type="checkbox"
        />
        <span
          className="checkbox-custom"
          title="Mark as done"
        />
      </label>
    </div>
    <div
      className="title"
    >
      <a
        className="text"
        href="http://test.url"
        target="_blank"
      >
        Test Task
      </a>
    </div>
    <div
      className="subtitle"
    >
      <a
        href="http://test2.url"
        target="_new"
      >
        on Test Board
      </a>
    </div>
    <div
      className="actions"
      onClick={[Function]}
    >
      <span
        className="time"
      >
        <span
          className="time-snooze"
        >
          Snoozing till further activity
        </span>
        <a
          className="icon-time"
          onBlur={undefined}
          onClick={[Function]}
          onFocus={undefined}
          onMouseDown={[Function]}
          onMouseEnter={undefined}
          onMouseLeave={undefined}
          onTouchStart={[Function]}
        />
      </span>
      <a
        className="star"
        onBlur={undefined}
        onClick={[Function]}
        onFocus={undefined}
        onMouseDown={undefined}
        onMouseEnter={[Function]}
        onMouseLeave={[Function]}
        onTouchStart={undefined}
        title="Star task"
      >
        <span
          className="icon-star-hollow"
        />
      </a>
    </div>
  </div>
</div>
`;

exports[`Storyshots TaskCreator basic 1`] = `
<form
  className="js-todo-new todo-new input-symbol"
  onSubmit={[Function]}
>
  <input
    onChange={[Function]}
    placeholder="Add your own task"
    type="text"
    value=""
  />
  <span
    className="icon-add js-todo-add"
    onClick={[Function]}
  />
</form>
`;

exports[`Storyshots TaskList inbox 1`] = `
<div
  style={
    Object {
      "background": "white",
    }
  }
>
  <div
    className="list-items"
  >
    <div
      className="list-item TASK_INBOX "
    >
      <div
        className="avatar-wrapper"
      >
        <div
          className="avatar"
        >
          <img
            alt="github"
            className="image"
            src="img/favicon-github.png"
            title="github"
          />
        </div>
        <label
          className="checkbox"
          onClick={[Function]}
        >
          <input
            defaultChecked={false}
            disabled={false}
            name="checked"
            onChange={[Function]}
            type="checkbox"
          />
          <span
            className="checkbox-custom"
            title="Mark as done"
          />
        </label>
      </div>
      <div
        className="title"
      >
        <a
          className="text"
          href="http://test.url"
          target="_blank"
        >
          Add Asana integration
        </a>
      </div>
      <div
        className="subtitle"
      >
        <a
          href="http://test2.url"
          target="_new"
        >
          hichroma/taskbox
        </a>
      </div>
      <div
        className="actions"
        onClick={[Function]}
      >
        <a
          className="icon-time"
          onBlur={undefined}
          onClick={[Function]}
          onFocus={undefined}
          onMouseDown={[Function]}
          onMouseEnter={undefined}
          onMouseLeave={undefined}
          onTouchStart={[Function]}
        />
        <a
          className="star"
          onBlur={undefined}
          onClick={[Function]}
          onFocus={undefined}
          onMouseDown={undefined}
          onMouseEnter={[Function]}
          onMouseLeave={[Function]}
          onTouchStart={undefined}
          title="Star task"
        >
          <span
            className="icon-star-hollow"
          />
        </a>
      </div>
    </div>
    <div
      className="list-item TASK_INBOX "
    >
      <div
        className="avatar-wrapper"
      >
        <div
          className="avatar"
        >
          <img
            alt="trello"
            className="image"
            src="img/favicon-trello.png"
            title="trello"
          />
        </div>
        <label
          className="checkbox"
          onClick={[Function]}
        >
          <input
            defaultChecked={false}
            disabled={false}
            name="checked"
            onChange={[Function]}
            type="checkbox"
          />
          <span
            className="checkbox-custom"
            title="Mark as done"
          />
        </label>
      </div>
      <div
        className="title"
      >
        <a
          className="text"
          href="http://test.url"
          target="_blank"
        >
          Write commodity components post
        </a>
      </div>
      <div
        className="subtitle"
      >
        <a
          href="http://test2.url"
          target="_new"
        >
          on Test Board
        </a>
      </div>
      <div
        className="actions"
        onClick={[Function]}
      >
        <a
          className="icon-time"
          onBlur={undefined}
          onClick={[Function]}
          onFocus={undefined}
          onMouseDown={[Function]}
          onMouseEnter={undefined}
          onMouseLeave={undefined}
          onTouchStart={[Function]}
        />
        <a
          className="star"
          onBlur={undefined}
          onClick={[Function]}
          onFocus={undefined}
          onMouseDown={undefined}
          onMouseEnter={[Function]}
          onMouseLeave={[Function]}
          onTouchStart={undefined}
          title="Star task"
        >
          <span
            className="icon-star-hollow"
          />
        </a>
      </div>
    </div>
    <div
      className="list-item TASK_INBOX "
    >
      <div
        className="avatar-wrapper"
      >
        <div
          className="avatar"
        >
          <div
            className="initials"
          >
            TB
          </div>
        </div>
        <label
          className="checkbox"
          onClick={[Function]}
        >
          <input
            defaultChecked={false}
            disabled={false}
            name="checked"
            onChange={[Function]}
            type="checkbox"
          />
          <span
            className="checkbox-custom"
            title="Mark as done"
          />
        </label>
      </div>
      <div
        className="title"
      >
        <input
          onChange={[Function]}
          placeholder="Input title"
          type="text"
          value="Pay electric bill"
        />
      </div>
      <div
        className="actions"
        onClick={[Function]}
      >
        <a
          className="icon-time"
          onBlur={undefined}
          onClick={[Function]}
          onFocus={undefined}
          onMouseDown={[Function]}
          onMouseEnter={undefined}
          onMouseLeave={undefined}
          onTouchStart={[Function]}
        />
        <a
          className="star"
          onBlur={undefined}
          onClick={[Function]}
          onFocus={undefined}
          onMouseDown={undefined}
          onMouseEnter={[Function]}
          onMouseLeave={[Function]}
          onTouchStart={undefined}
          title="Star task"
        >
          <span
            className="icon-star-hollow"
          />
        </a>
      </div>
    </div>
  </div>
</div>
`;

exports[`Storyshots TaskList pinned 1`] = `
<div
  style={
    Object {
      "background": "white",
    }
  }
>
  <div
    className="list-items"
  >
    <div
      className="list-item TASK_PINNED "
    >
      <div
        className="avatar-wrapper"
      >
        <div
          className="avatar"
        >
          <img
            alt="github"
            className="image"
            src="img/favicon-github.png"
            title="github"
          />
        </div>
        <label
          className="checkbox"
          onClick={[Function]}
        >
          <input
            defaultChecked={false}
            disabled={false}
            name="checked"
            onChange={[Function]}
            type="checkbox"
          />
          <span
            className="checkbox-custom"
            title="Mark as done"
          />
        </label>
      </div>
      <div
        className="title"
      >
        <a
          className="text"
          href="http://test.url"
          target="_blank"
        >
          Test Task
        </a>
      </div>
      <div
        className="subtitle"
      >
        <a
          href="http://test2.url"
          target="_new"
        >
          on Test Board
        </a>
      </div>
      <div
        className="actions"
        onClick={[Function]}
      >
        <a
          className="icon-time"
          onBlur={undefined}
          onClick={[Function]}
          onFocus={undefined}
          onMouseDown={[Function]}
          onMouseEnter={undefined}
          onMouseLeave={undefined}
          onTouchStart={[Function]}
        />
        <a
          className="star"
          onBlur={undefined}
          onClick={[Function]}
          onFocus={undefined}
          onMouseDown={undefined}
          onMouseEnter={[Function]}
          onMouseLeave={[Function]}
          onTouchStart={undefined}
          title="Unstar task"
        >
          <span
            className="icon-star"
          />
        </a>
      </div>
    </div>
    <div
      className="list-item TASK_PINNED "
    >
      <div
        className="avatar-wrapper"
      >
        <div
          className="avatar"
        >
          <img
            alt="github"
            className="image"
            src="img/favicon-github.png"
            title="github"
          />
        </div>
        <label
          className="checkbox"
          onClick={[Function]}
        >
          <input
            defaultChecked={false}
            disabled={false}
            name="checked"
            onChange={[Function]}
            type="checkbox"
          />
          <span
            className="checkbox-custom"
            title="Mark as done"
          />
        </label>
      </div>
      <div
        className="title"
      >
        <a
          className="text"
          href="http://test.url"
          target="_blank"
        >
          Test Task
        </a>
      </div>
      <div
        className="subtitle"
      >
        <a
          href="http://test2.url"
          target="_new"
        >
          on Test Board
        </a>
      </div>
      <div
        className="actions"
        onClick={[Function]}
      >
        <a
          className="icon-time"
          onBlur={undefined}
          onClick={[Function]}
          onFocus={undefined}
          onMouseDown={[Function]}
          onMouseEnter={undefined}
          onMouseLeave={undefined}
          onTouchStart={[Function]}
        />
        <a
          className="star"
          onBlur={undefined}
          onClick={[Function]}
          onFocus={undefined}
          onMouseDown={undefined}
          onMouseEnter={[Function]}
          onMouseLeave={[Function]}
          onTouchStart={undefined}
          title="Unstar task"
        >
          <span
            className="icon-star"
          />
        </a>
      </div>
    </div>
    <div
      className="list-item TASK_PINNED "
    >
      <div
        className="avatar-wrapper"
      >
        <div
          className="avatar"
        >
          <img
            alt="github"
            className="image"
            src="img/favicon-github.png"
            title="github"
          />
        </div>
        <label
          className="checkbox"
          onClick={[Function]}
        >
          <input
            defaultChecked={false}
            disabled={false}
            name="checked"
            onChange={[Function]}
            type="checkbox"
          />
          <span
            className="checkbox-custom"
            title="Mark as done"
          />
        </label>
      </div>
      <div
        className="title"
      >
        <a
          className="text"
          href="http://test.url"
          target="_blank"
        >
          Test Task
        </a>
      </div>
      <div
        className="subtitle"
      >
        <a
          href="http://test2.url"
          target="_new"
        >
          on Test Board
        </a>
      </div>
      <div
        className="actions"
        onClick={[Function]}
      >
        <a
          className="icon-time"
          onBlur={undefined}
          onClick={[Function]}
          onFocus={undefined}
          onMouseDown={[Function]}
          onMouseEnter={undefined}
          onMouseLeave={undefined}
          onTouchStart={[Function]}
        />
        <a
          className="star"
          onBlur={undefined}
          onClick={[Function]}
          onFocus={undefined}
          onMouseDown={undefined}
          onMouseEnter={[Function]}
          onMouseLeave={[Function]}
          onTouchStart={undefined}
          title="Unstar task"
        >
          <span
            className="icon-star"
          />
        </a>
      </div>
    </div>
  </div>
</div>
`;

exports[`Storyshots TaskList snoozed 1`] = `
<div
  style={
    Object {
      "background": "white",
    }
  }
>
  <div
    className="list-items"
  >
    <div
      className="list-item TASK_SNOOZED "
    >
      <div
        className="avatar-wrapper"
      >
        <div
          className="avatar"
        >
          <img
            alt="github"
            className="image"
            src="img/favicon-github.png"
            title="github"
          />
        </div>
        <label
          className="checkbox"
          onClick={[Function]}
        >
          <input
            defaultChecked={false}
            disabled={false}
            name="checked"
            onChange={[Function]}
            type="checkbox"
          />
          <span
            className="checkbox-custom"
            title="Mark as done"
          />
        </label>
      </div>
      <div
        className="title"
      >
        <a
          className="text"
          href="http://test.url"
          target="_blank"
        >
          Test Task
        </a>
      </div>
      <div
        className="subtitle"
      >
        <a
          href="http://test2.url"
          target="_new"
        >
          on Test Board
        </a>
      </div>
      <div
        className="actions"
        onClick={[Function]}
      >
        <span
          className="time"
        >
          <span
            className="time-snooze"
          >
            Unsnoozing 
            in a day
          </span>
          <a
            className="icon-time"
            onBlur={undefined}
            onClick={[Function]}
            onFocus={undefined}
            onMouseDown={[Function]}
            onMouseEnter={undefined}
            onMouseLeave={undefined}
            onTouchStart={[Function]}
          />
        </span>
        <a
          className="star"
          onBlur={undefined}
          onClick={[Function]}
          onFocus={undefined}
          onMouseDown={undefined}
          onMouseEnter={[Function]}
          onMouseLeave={[Function]}
          onTouchStart={undefined}
          title="Star task"
        >
          <span
            className="icon-star-hollow"
          />
        </a>
      </div>
    </div>
    <div
      className="list-item TASK_SNOOZED "
    >
      <div
        className="avatar-wrapper"
      >
        <div
          className="avatar"
        >
          <img
            alt="github"
            className="image"
            src="img/favicon-github.png"
            title="github"
          />
        </div>
        <label
          className="checkbox"
          onClick={[Function]}
        >
          <input
            defaultChecked={false}
            disabled={false}
            name="checked"
            onChange={[Function]}
            type="checkbox"
          />
          <span
            className="checkbox-custom"
            title="Mark as done"
          />
        </label>
      </div>
      <div
        className="title"
      >
        <a
          className="text"
          href="http://test.url"
          target="_blank"
        >
          Test Task
        </a>
      </div>
      <div
        className="subtitle"
      >
        <a
          href="http://test2.url"
          target="_new"
        >
          on Test Board
        </a>
      </div>
      <div
        className="actions"
        onClick={[Function]}
      >
        <span
          className="time"
        >
          <span
            className="time-snooze"
          >
            Unsnoozing 
            in a day
          </span>
          <a
            className="icon-time"
            onBlur={undefined}
            onClick={[Function]}
            onFocus={undefined}
            onMouseDown={[Function]}
            onMouseEnter={undefined}
            onMouseLeave={undefined}
            onTouchStart={[Function]}
          />
        </span>
        <a
          className="star"
          onBlur={undefined}
          onClick={[Function]}
          onFocus={undefined}
          onMouseDown={undefined}
          onMouseEnter={[Function]}
          onMouseLeave={[Function]}
          onTouchStart={undefined}
          title="Star task"
        >
          <span
            className="icon-star-hollow"
          />
        </a>
      </div>
    </div>
    <div
      className="list-item TASK_SNOOZED "
    >
      <div
        className="avatar-wrapper"
      >
        <div
          className="avatar"
        >
          <img
            alt="github"
            className="image"
            src="img/favicon-github.png"
            title="github"
          />
        </div>
        <label
          className="checkbox"
          onClick={[Function]}
        >
          <input
            defaultChecked={false}
            disabled={false}
            name="checked"
            onChange={[Function]}
            type="checkbox"
          />
          <span
            className="checkbox-custom"
            title="Mark as done"
          />
        </label>
      </div>
      <div
        className="title"
      >
        <a
          className="text"
          href="http://test.url"
          target="_blank"
        >
          Test Task
        </a>
      </div>
      <div
        className="subtitle"
      >
        <a
          href="http://test2.url"
          target="_new"
        >
          on Test Board
        </a>
      </div>
      <div
        className="actions"
        onClick={[Function]}
      >
        <span
          className="time"
        >
          <span
            className="time-snooze"
          >
            Unsnoozing 
            in a day
          </span>
          <a
            className="icon-time"
            onBlur={undefined}
            onClick={[Function]}
            onFocus={undefined}
            onMouseDown={[Function]}
            onMouseEnter={undefined}
            onMouseLeave={undefined}
            onTouchStart={[Function]}
          />
        </span>
        <a
          className="star"
          onBlur={undefined}
          onClick={[Function]}
          onFocus={undefined}
          onMouseDown={undefined}
          onMouseEnter={[Function]}
          onMouseLeave={[Function]}
          onTouchStart={undefined}
          title="Star task"
        >
          <span
            className="icon-star-hollow"
          />
        </a>
      </div>
    </div>
  </div>
</div>
`;

exports[`Storyshots UserPasswordForm basic 1`] = `
<div
  className="page auth"
>
  <div
    className="wrapper-auth"
  >
    <form
      onSubmit={[Function]}
    >
      <div
        className="input-symbol"
      >
        <input
          name="email"
          onChange={[Function]}
          placeholder="Enter your email"
          type="email"
          value=""
        />
        <span
          className="icon-email"
          title="Email"
        />
      </div>
      <div
        className="input-symbol"
      >
        <input
          name="password"
          onChange={[Function]}
          placeholder="Enter your password"
          type="password"
          value=""
        />
        <span
          className="icon-lock"
          title="Password"
        />
      </div>
      <button
        className="btn-primary"
        type="submit"
      >
        Submit
      </button>
    </form>
  </div>
</div>
`;
